…
    ok <- lapply(c(1982, 1983), fetch_year, path = PATH)

Next we need to build and save a database, which is stored as a CSV in
the data path. What is in my database contains more years than what is
downloaded above. But you get the idea.

``` r
DB <- build_database(PATH, save_db = TRUE)
DB
```

    ## # A tibble: 15,382 × 4
    ##    date       param per   trt  
    ##    <date>     <chr> <chr> <chr>
    ##  1 1981-09-01 sst   day   mean 
    ##  2 1981-09-02 sst   day   mean 
    ##  3 1981-09-03 sst   day   mean 
    ##  4 1981-09-04 sst   day   mean 
    ##  5 1981-09-05 sst   day   mean 
    ##  6 1981-09-06 sst   day   mean 
    ##  7 1981-09-07 sst   day   mean 
    ##  8 1981-09-08 sst   day   mean 
    ##  9 1981-09-09 sst   day   mean 
    ## 10 1981-09-10 sst   day   mean 
    ## # … with 15,372 more rows
…
